{
  "layniar_cobalt_full": {
    "0": {
      "text": "Just as a notification, you will be moved into subsquads later as to increase our damage potential and party chat will only work with those people, so /d or /squad is a better choice <3",
      "title": "squadchat"
    },
    "1": {
      "text": "There are 3 Keg spots: Beach, Mast and Jumping Puzzle.",
      "title": "kegspots"
    },
    "2": {
      "text": "Only pick up Kegs when Commander says to",
      "title": "comm keg follow"
    },
    "3": {
      "text": "Once you get to the Green Glowie use Skill 1 to place the Keg - Do not weapon swap",
      "title": "keg place"
    },
    "4": {
      "text": "Also DONT use TPs, Blinks, Portals or Fall in the Water - you will lose your Keg",
      "title": "keg drop"
    },
    "5": {
      "text": "Stack in the Water on Jumping Puzzle",
      "title": "stack water jp"
    },
    "6": {
      "text": "Please AVOID using AOE Swiftness on the Jumping Puzzle",
      "title": "avoid swift on jp"
    },
    "7": {
      "text": "20 Kegs = A Vulnerable Wurm = A Burn Phase (Yay Damage)",
      "title": "20 kegs burn"
    },
    "8": {
      "text": "Stack on the commander's tag during the Burn Phase\"",
      "title": "stack in burn"
    },
    "9": {
      "text": "Make sure to use a cleaving weapon to hit the double damage spot of the wurm\"",
      "title": "cleaving weap"
    },
    "10": {
      "text": "Cleaving Weapon Skills: Strike/Sever Artery/Misery Swipe/Slash\" <-- TODO",
      "title": "cleaving weap ex"
    },
    "11": {
      "text": "Fire Fields: Lava Fron/Bonfire/Hallowed Ground/Searing Fissure\" <-- TODO",
      "title": "fire field ex"
    },
    "12": {
      "text": "Elementalist Weapons: [&BvgVAAA=] and [&BowVAAA=]\"",
      "title": "conjured weap"
    },
    "13": {
      "text": "[&BvgVAAA=] --> If you pick up one of these use skill 4 and spam skill 1! The auto attack chain as a build in blast finisher!\"",
      "title": "lightning hammer"
    },
    "14": {
      "text": "[&BowVAAA=] --> If you pick up one of these alternate between skills 5 and 1! It's good for people who do not have a cleaving weapon!\"",
      "title": "fiery greatsword"
    },
    "15": {
      "text": "Warrior Banners: [&BkU4AAA=] [&Bkc4AAA=]\"",
      "title": "warrior banners"
    },
    "16": {
      "text": "Warriors place your Banners OUTside the Stack but INside the Fire Fields so people don't accidentally pick them up\"",
      "title": "banners blastfinisher"
    },
    "17": {
      "text": "Mesmers: [&BokoAAA=][&BvwnAAA=] -> Use if you have 25 stacks of might or after 5-6 seconds have passed!\"",
      "title": "mesmer burn"
    },
    "18": {
      "text": "Guardians please avoid using Hammers as they have a Light Field on the auto attack chain\"",
      "title": "guards hammer"
    },
    "19": {
      "text": "Wait inside the wurm until you see 0 damage number or until the commander runs out (if we're stopping damage early)\"",
      "title": "burn end"
    },
    "20": {
      "text": "If too many Vet Jungle Wurms spawn, the Commander will call 'Clean Arena!' just stack on the tag and clean the Wurms\"",
      "title": "clean arena"
    },
    "21": {
      "text": "Also, if there are eggs the commander will call those and we will be killing those if needed, Just stack and cleave.\"",
      "title": "egg call"
    },
    "22": {
      "text": "Make sure to AVOID Glowing Lights. [Other than Light Green] - These are Husk Landing Spots\"",
      "title": "husk spots"
    },
    "23": {
      "text": "These Husks take very little power damage so Subsquad 3 are condi based and will be dealing with those, so dont worry, just try to stay away from them\"",
      "title": "husk dmg squad"
    },
    "24": {
      "text": "Make sure to DODGE any Orange Circles (duh). These are from Wurm Spins or AoE Spits\"",
      "title": "dodge orange circles"
    },
    "25": {
      "text": "Small Wurm Spin = AoE Spits, Large Wurm Spin = Large Single AoE around the Wurm\"",
      "title": ""
    },
    "26": {
      "text": "Those AoE might be blocked by Subsquad 2 but make sure to dodge anyways, Just in case\"",
      "title": ""
    },
    "27": {
      "text": "Try to run together with Kegs, This is because we need 20 on the stack at the same time\"",
      "title": ""
    },
    "28": {
      "text": "When the Wurm's HP = 15%, Exit Burn Phase\"",
      "title": ""
    },
    "29": {
      "text": "After this we will NOT be running Kegs, we will be cleaning the Arena until all Wurms are ready\"",
      "title": ""
    },
    "30": {
      "text": "Once decapitated the Wurm will enter Phase 2\"",
      "title": ""
    },
    "31": {
      "text": "During Phase 2 we will Stack on the Commander\"",
      "title": ""
    },
    "32": {
      "text": "Wurm will randomly perform 3 different attacks. These are: Wiggle, Flop and Charge.\"",
      "title": ""
    },
    "33": {
      "text": "Wiggle is a \"\"Normal\"\" burn Phase, BUT it will be Flopping or Charging on its next Attack\"",
      "title": ""
    },
    "34": {
      "text": "Flop is an AoE around the Wurm, you can dodge this or use Stability.\"",
      "title": ""
    },
    "35": {
      "text": "Charge is a ... Charge. Dodge Left or Right when the Wurm is Charging to avoid being squished\"",
      "title": ""
    },
    "36": {
      "text": "The wurm will charge in the direction of a random allied unit!\"",
      "title": ""
    },
    "37": {
      "text": "Please shatter your illusions, destroy your minions and turrets, put pets on passive/call them back before and during this phase - otherwise the wurm might charge in their direction.\"",
      "title": ""
    }
  }
}