{
  "cobalt_post-burn": {
    "end_burn_phase": {
      "text": "After Wurm stands up and you see 0 damage, move out, follow the Comm either to the keg spot, or to clear the arena.",
      "title": "burn end"
    },
    "repeating_mechanics": {
      "text": "We'll keep running kegs and burning the wurm afterwards until the wurms health reaches a certain threshold.",
      "title":"repeat mechanic"
    },
    "premature_end_burn_phase": {
      "text": "When the wurm reaches 15% health we run out of the wurm and stop damaging it. Stay with Comm and possibly clean arena before decapitating the wurm.",
      "title":"premature burn end 15%"
    },
    "decapitating_wurm": {
      "text": "All 3 Wurms need to be decapitated within 1 minute. Once the other two Comms are ready, our Comm will initiate the final keg run, then burn the Wurm to 0 - save long cooldowns - prepare for phase 2.",
      "title": "phase 1 end"
    }
  }
}