{
  "opencommunity_squadjoins": {
    "0": {
      "title": "     --- OpenCommunity Squadjoins"
    },
    "1": {
      "text": "/sqjoin Horndell",
      "title": "Danbog"
    },
    "2": {
      "text": "/sqjoin Eponeko",
      "title": "Epona"
    },
    "3": {
      "text": "/sqjoin Frontwheel",
      "title": "Freontwel"
    },
    "4": {
      "text": "/sqjoin Goremom",
      "title": "Goremaw"
    },
    "5": {
      "text": "/sqjoin Goremaw Bloodfang",
      "title": "Goremaw (bloodfang)"
    },
    "6": {
      "text": "/sqjoin Gelkera",
      "title": "hmed"
    },
    "7": {
      "text": "/sqjoin Lowue",
      "title": "Karry"
    },
    "8": {
      "text": "/sqjoin Koisti",
      "title": "Koisty"
    },
    "9": {
      "text": "/sqjoin Layniar",
      "title": "Layniar"
    },
    "10": {
      "text": "/sqjoin Luxanna The First",
      "title": "Luxanna"
    },
    "11": {
      "text": "/sqjoin Raccoon.8364",
      "title": "Luxanna (accountname)"
    },
    "12": {
      "text": "/sqjoin Quotastic",
      "title": "Quotastic"
    },
    "13": {
      "text": "/sqjoin Molrou",
      "title": "Sabina"
    },
    "14": {
      "text": "/sqjoin saipuff",
      "title": "Sai (saipuff)"
    },
    "15": {
      "text": "/sqjoin Triple Trouble Taxi",
      "title": "Sai (taxi)"
    },
    "16": {
      "text": "/sqjoin Chalmar Starrybones",
      "title": "Tamo"
    },
    "17": {
      "text": "/sqjoin Rezzary",
      "title": "Tossino"
    },
    "18": {
      "text": "/sqjoin Wurfikibeth",
      "title": "Wolfie"
    },
    "19": {
      "text": "/sqjoin Ndidi Yuudai",
      "title": "Yuudai"
    }
  }
}