{
  "opencommunity_links": {
    "section_plain": {
      "title": "     --- OpenCommunity Links (uncoloured)"
    },
    "plain_https_links": {
      "text": "[url=https://www.theopencommunity.org/]Website![/url] | [url=https://www.theopencommunity.org/feedback/]Feedback![/url] | [url=https://www.theopencommunity.org/donate]Donate! \\o/[/url] | [url=https://www.theopencommunity.org/calendar/]Calendar![/url] | [url=https://www.theopencommunity.org/forms/3-gw2-commander-sign-up/]Join the Team![/url] | [url=https://www.theopencommunity.org/gw2/guilds/]Join our Guilds![/url] | [url=https://www.theopencommunity.org/topic/370-opencommunity-discord-verification-thread/]Join our Discord![/url] | [url=https://www.theopencommunity.org/gw2/raids/]Join our Raids![/url] | [url=https://www.theopencommunity.org/topic/1668-announcing-the-opencommunity-minecraft-server/]Join our Minecraft Server![/url]",
      "title": "plain https links"
    },
    "plain_website": {
      "text": "[url=http://www.theopencommunity.org/]Website![/url]",
      "title": "plain website"
    },
    "plain_feedback": {
      "text": "[url=http://www.theopencommunity.org/feedback/]Feedback![/url]",
      "title": "plain feedback"
    },
    "plain_donate": {
      "text": "[url=http://www.theopencommunity.org/donate]Donate! \\o/[/url]",
      "title": "plain donate"
    },
    "plain_calendar": {
      "text": "[url=http://www.theopencommunity.org/calendar/]Calendar![/url]",
      "title": "plain calendar"
    },
    "plain_join_the_team": {
      "text": "[url=http://www.theopencommunity.org/forms/3-gw2-commander-sign-up/]Join the Team![/url]",
      "title": "plain join the team"
    },
    "plain_community_guilds": {
      "text": "[url=http://www.theopencommunity.org/gw2/guilds/]Join our Guilds![/url]",
      "title": "plain community guilds"
    },
    "plain_discord": {
      "text": "[url=http://www.theopencommunity.org/topic/370-opencommunity-discord-verification-thread/]Join our Discord![/url]",
      "title": "plain discord"
    },
    "plain_raids": {
      "text": "[url=http://www.theopencommunity.org/gw2/raids/]Join our Raids![/url]",
      "title": "plain raids"
    },
    "plain_raid_schedule": {
      "text": "[url=http://www.theopencommunity.org/gw2/raid-schedule/]Raid Schedule![/url]",
      "title": "plain raid schedule"
    },
    "plain_minecraft": {
      "text": "[url=http://www.theopencommunity.org/topic/1668-announcing-the-opencommunity-minecraft-server/]Join our Minecraft Server![/url]",
      "title": "plain minecraft"
    },
    "plain_event_survey": {
      "text": "[url=http://www.theopencommunity.org/forms/27-event-survey/]Event Survey![/url]",
      "title": "(tmp) plain event survey"
    },
    "plain_links": {
      "text": "{{key:opencommunity_links.plain_website.text}} | {{key:opencommunity_links.plain_feedback.text}} | {{key:opencommunity_links.plain_donate.text}} | {{key:opencommunity_links.plain_calendar.text}} | {{key:opencommunity_links.plain_join_the_team.text}} | {{key:opencommunity_links.plain_community_guilds.text}} | {{key:opencommunity_links.plain_discord.text}} | {{key:opencommunity_links.plain_raids.text}} | {{key:opencommunity_links.plain_minecraft.text}}",
      "title": "plain links"
    },
    "section_rainbow": {
      "title": "     --- OpenCommunity Links (rainbow)"
    },
    "rainbow_website": {
      "text": "[url=http://www.theopencommunity.org/][b][color=#921010]Website![/color][/b][/url]",
      "title": "rainbow-website"
    },
    "rainbow_feedback": {
      "text": "[url=http://www.theopencommunity.org/feedback/][b][color=#FF3A3A]Feedback![/color][/b][/url]",
      "title": "rainbow-feedback"
    },
    "rainbow_donate": {
      "text": "[url=http://www.theopencommunity.org/donate][b][color=#FF681D]Donate! \\o/[/color][/b][/url]",
      "title": "rainbow-donate"
    },
    "rainbow_calendar": {
      "text": "[url=http://www.theopencommunity.org/calendar/][b][color=#CD9C23]Calendar![/color][/b][/url]",
      "title": "rainbow-calendar"
    },
    "rainbow_join_the_team": {
      "text": "[url=http://www.theopencommunity.org/forms/3-gw2-commander-sign-up/][b][color=#006666]Join the Team![/color][/b][/url]",
      "title": "rainbow-join the team"
    },
    "rainbow_community_guilds": {
      "text": "[url=http://www.theopencommunity.org/gw2/guilds/][b][color=#335577]Join our Guilds![/color][/b][/url]",
      "title": "rainbow-community guilds"
    },
    "rainbow_discord": {
      "text": "[url=http://www.theopencommunity.org/topic/370-opencommunity-discord-verification-thread/][b][color=#0C0CEF]Join our Discord![/color][/b][/url]",
      "title": "rainbow-discord"
    },
    "rainbow_raids": {
      "text": "[url=http://www.theopencommunity.org/gw2/raids/][b][color=#8B158B]Join our Raids![/color][/b][/url]",
      "title": "rainbow-raids"
    },
    "rainbow_raid_schedule": {
      "text": "[url=http://www.theopencommunity.org/gw2/raid-schedule/][b][color=#8B158B]Raid Schedule![/color][/b][/url]",
      "title": "rainbow-raid schedule"
    },
    "rainbow_minecraft": {
      "text": "[url=http://www.theopencommunity.org/topic/1668-announcing-the-opencommunity-minecraft-server/][b][color=#FF07FF]Join our Minecraft Server![/color][/b][/url]",
      "title": "rainbow-minecraft"
    },
    "rainbow_links": {
      "text": "{{key:opencommunity_links.rainbow_website.text}} | {{key:opencommunity_links.rainbow_feedback.text}} | {{key:opencommunity_links.rainbow_donate.text}} | {{key:opencommunity_links.rainbow_calendar.text}} | {{key:opencommunity_links.rainbow_join_the_team.text}} | {{key:opencommunity_links.rainbow_community_guilds.text}} | {{key:opencommunity_links.rainbow_discord.text}} | {{key:opencommunity_links.rainbow_raids.text}} | {{key:opencommunity_links.rainbow_minecraft.text}}",
      "title": "rainbow-links"
    },
    "section_greenish": {
      "title": "     --- OpenCommunity Links (green-ish)"
    },
    "greenish_website": {
      "text": "[url=http://www.theopencommunity.org/][b][color=#006666]Website![/color][/b][/url]",
      "title": "website"
    },
    "greenish_feedback": {
      "text": "[url=http://www.theopencommunity.org/feedback/][b][color=#009973]Feedback![/color][/b][/url]",
      "title": "feedback"
    },
    "greenish_donate": {
      "text": "[url=http://www.theopencommunity.org/donate][b][color=#006666]Donate! \\o/[/color][/b][/url]",
      "title": "donate"
    },
    "greenish_calendar": {
      "text": "[url=http://www.theopencommunity.org/calendar/][b][color=#009973]Calendar![/color][/b][/url]",
      "title": "calendar"
    },
    "greenish_join_the_team": {
      "text": "[url=http://www.theopencommunity.org/forms/3-gw2-commander-sign-up/][b][color=#006666]Join the Team![/color][/b][/url]",
      "title": "join the team"
    },
    "greenish_community_guilds": {
      "text": "[url=http://www.theopencommunity.org/gw2/guilds/][b][color=#009973]Join our Guilds![/color][/b][/url]",
      "title": "community guilds"
    },
    "greenish_discord": {
      "text": "[url=http://www.theopencommunity.org/topic/370-opencommunity-discord-verification-thread/][b][color=#006666]Join our Discord![/color][/b][/url]",
      "title": "discord"
    },
    "greenish_raids": {
      "text": "[url=http://www.theopencommunity.org/gw2/raids/][b][color=#009973]Join our Raids![/color][/b][/url]",
      "title": "raids"
    },
    "greenish_raid_schedule": {
      "text": "[url=http://www.theopencommunity.org/gw2/raid-schedule/][b][color=#009973]Raid Schedule![/color][/b][/url]",
      "title": "raid schedule"
    },
    "greenish_minecraft": {
      "text": "[url=http://www.theopencommunity.org/topic/1668-announcing-the-opencommunity-minecraft-server/][b][color=#006666]Join our Minecraft Server![/color][/b][/url]",
      "title": "minecraft"
    },
    "greenish_links": {
      "text": "{{key:opencommunity_links.greenish_website.text}} | {{key:opencommunity_links.greenish_feedback.text}} | {{key:opencommunity_links.greenish_donate.text}} | {{key:opencommunity_links.greenish_calendar.text}} | {{key:opencommunity_links.greenish_join_the_team.text}} | {{key:opencommunity_links.greenish_community_guilds.text}} | {{key:opencommunity_links.greenish_discord.text}} | {{key:opencommunity_links.greenish_raids.text}} | {{key:opencommunity_links.greenish_minecraft.text}}",
      "title": "links"
    }
  }
}