{
  "orga": {
    "section_lfgs_opencommunity": {
      "title": "     --- OpenCommunity LFGs"
    },
    "lfg_shatterer_oc": {
      "title": "shatterer lfg",
      "text": "OC Shatterer | ts.gw2oc.org"
    }
  }
}