{
  "escort": {
    "0": {
      "title": "     --- BEFORE ESCORT (General)"
    },
    "1": {
      "text": "[&AgEamwAA] and food will be dropped at [&BKoBAAA=], around 2 minutes before the escort event starts.",
      "title": "food & banners"
    },
    "2": {
      "text": "Now we'll move back to [&BKoBAAA=] where a [&AgEamwAA] and food will be dropped soon.",
      "title": "move back, food & banners"
    },
    "3": {
      "text": "@condi classes: Veggie Pizza is on the hill - @power classes: Truffle steaks are next to the waypoint - everybody grab the banner buffs! If you are not sure what you are, grab the truffle steaks!",
      "title": "food explain"
    },
    "4": {
      "title": "     --- DURING ESCORT (General)"
    },
    "5": {
      "text": "During the escort, there will be several sets of eggs, which are initially invulnerable. They can however be damaged by life siphoning abilities during this time.",
      "title": "eggs invuln"
    },
    "6": {
      "text": "Necros, please equip the trait [&BzQHAAA=] (from the Blood Magic traitline) for group siphon damage, Revenants can use [&BjlpAAA=] for personal siphon damage. Use cleaving weapons!",
      "title": "egg life siphon"
    },
    "7": {
      "text": "Prioritize killing eggs > larvae > wurms, not only during the escort but also during the event itself. That means, that even if there are larvae, kill remaining eggs first!",
      "title": "egg prio"
    },
    "8": {
      "text": "Please keep also the following rules in mind:",
      "title": "community rules"
    },
    "9": {
      "text": "Rule #1: Pick up downed people - it doesn't take long and is incredible helpful.",
      "title": "rule 1"
    },
    "10": {
      "text": "Rule #3: Have fun, but not on the expense of others.",
      "title": "rule 3"
    },
    "11": {
      "text": "Also keep away and do not interact with \"Nutrients\" (mushrooms), these will give you [&Bn1YAAA=] and make you puke/stun you every some seconds - if you puke on others they will get stunned too.",
      "title": "nutrients w/ parasites link"
    },
    "12": {
      "text": "Also keep away and do not interact with \"Nutrients\" (mushrooms), these will give you parasites and make you puke/stun you every some seconds - if you puke on others they will get stunned too.",
      "title": "nutrients w/o parasites link"
    },
    "13": {
      "text": "Players will be/were organized into different subgroups, this is done to improve boon sharing during the burn phase. Please be aware that from now on you need to use squadchat (/squad or /d) to chat with the rest of the squad.",
      "title": "subgroups"
    },
    "14": {
      "text": "Summary: stack with your commander and do what your commander does. GL & HF!",
      "title": "tldr"
    }
  }
}