{
  "wurmspins": {
    "0": {
      "title": "     --- WURM SPINS"
    },
    "1": {
      "text": "The wurm has two different kind of spins: a large spin attack and a small spin attack.",
      "title": "spins"
    },
    "2": {
      "text": "The large spin damages and knocks back all players in a large radius around the wurm. This is indicated by the wurm standing up/stretching and a large orange circle around it.",
      "title": "large spin"
    },
    "3": {
      "text": "The small spin damages and knocks back all players as well, however in a much smaller radius. It's indicated by the wurm curling up on the ground and a small orange circle around it.",
      "title": "small spin"
    },
    "4": {
      "text": "The small spin also creates AoE spits which fly all over the arena. These happen during the small spin and are indicated by small orange circle around the arena.",
      "title": "aoe spits"
    },
    "5": {
      "text": "Make sure to dodge/avoid any orange circles (duh).",
      "title": "avoid orange circles"
    }
  }
}