{
  "amber_pre-burn": {
    "section_dry_run": {
      "title": "     --- DURING DRY RUN"
    },
    "join_on_teamspeak": {
      "text": "Event explanations on teamspeak right now guys! ts.gw2oc.org, Channel: Amber Wurm!",
      "title": "join us"
    },
    "attention_to_squad_chat": {
      "text": "If you're not in teamspeak, please pay attention to these explanations in squad chat.",
      "title": "start"
    },
    "this_wurm_overview": {
      "text": "In order to make our wurm vulnerable we have to do a specific task. We have to shoot the outside of the wurm with a harpoon - which we got from inside the wurms stomach!",
      "title": "this wurm"
    },
    "phase_1": {
      "text": "PHASE 1: We will kill the abomination and stand in its explosion to get the Wurm Attractant buff. Then run to the marked spot in front of the wurm.",
      "title": "phase 1"
    },
    "stability_and_reflections": {
      "text": "Place Reflections, apply stability and wait to get swallowed by the Wurm. If Husks/Veteran Jungle Wurms hit us, we might lose the Wurm Attractant buff and will not be getting swallowed.",
      "title": "stab reflection"
    },
    "relections_examples": {
      "text": "Reflections examples: [&Bj4oAAA=], [&BiMkAAA=], [&BjUWAAA=]",
      "title": "reflect examples"
    },
    "stability_examples": {
      "text": "Stability examples: [&BmRvAAA=], [&BsEjAAA=], [&BiUkAAA=]",
      "title": "stability examples"
    },
    "water_fields_inside": {
      "text": "Once swallowed, place down any water fields you have and try to use AoE healing. You'll take damage while you are inside the wurm!",
      "title": "inside water fields"
    },
    "water_field_examples": {
      "text": "Water Fields examples: [&Bq8VAAA=], [&BskwAAA=], [&BuEWAAA=]",
      "title": "water fields examples"
    },
    "harpoon_inside": {
      "text": "Pick up a harpoon from the Unfortunate Adventurer behind you. Turn around and start shooting the Pyloric Valve  with the #1 skill of the harpoon.",
      "title": "inside harpoon"
    },
    "spit_out": {
      "text": "After killing the Pyloric Valve the wurm will spit us out. Stop shooting, hold on to your harpoon, do NOT drop it or weapon swap it away, we still need it. You can only shoot one more time!",
      "title": "spit out"
    },
    "condi_cleanes_outside": {
      "text": "After getting spat out, apply condition cleanses and start moving to the right side of the wurm.",
      "title": "condi cleanse"
    },
    "condi_cleanse_exampless": {
      "text": "Condition Cleanse examples: [&BtsnAAA=], [&BudyAAA=], [&BuMjAAA=]",
      "title": "condi cleanses examples"
    },
    "slick_skin": {
      "text": "Before you use your last harpoon shot, ensure that you have targeted the Amber Wurm and that there is nothing in the way. Then shoot! If enough players (20) succeed, a burn phase will trigger.",
      "title": "slick skin"
    }
  }
}