{
  "amber_post-burn": {
    "end_burn_phase": {
      "text": "After Wurm stands up and you see 0 damage, move out, follow the Comm to clear the arena and wait for the debuff to disappear.",
      "title": "burn end"
    },
    "upset_stomach_debuff": {
      "text": "This debuff is the \"Upset Stomach\" and it was applied while we got spat out. We need to wait until it's gone to be able to regain the Wurm Attractant buff. Do not attack the abomination in this time!",
      "title": "debuff"
    },
    "husk_landing_spots": {
      "text": "Avoid the three marked spots around the wurm \u2013 these are husk landing spots. Every 90 secs the wurm will spit out husks to these locations. If you get hit by one, you get downed!",
      "title": "husks"
    },
    "repeating_mechanics": {
      "text": "We'll keep getting swallowed, picking up harpoons, shooting the wurm with them and burning the wurm afterwards until the wurms health reaches a certain threshold.",
      "title":"repeat mechanic"
    },
    "premature_end_burn_phase": {
      "text": "When the wurm reaches 15% health we run out of the wurm and stop damaging it. Stay with Comm and possibly clean arena before decapitating the wurm.",
      "title":"premature burn end 15%"
    },
    "decapitating_wurm": {
      "text": "All 3 Wurms need to be decapitated within 1 minute. Once the other two Comms are ready, our Comm will initiate the final Abomination kill, afterwards burn the Wurm to 0 - save long cooldowns!",
      "title": "phase 1 end"
    }
  }
}